{
  "name": "Jabberbot",
  "token": "",
  "dataDirectory": "./data",
  "plugins": ["cryptocurrency", "dice", "name", "quote", "roms", "smmry", "weather"],
  "pluginConfig": {
    "weather": {
      "apiKey": ""
    },
    "roms": {
      "baseDirectory": "./roms"
    }
  }
}
